{
  "hosting": {
    "public": "www",
    "rewrites": [
      {
        "source": "**",
        "destination": "/index.html"
      }
    ],
    "headers": [
      {
        "source": "**",
        "headers": [
          {
            "key": "Cache-Control",
            "value": "max-age=0"
          }
        ]
      },
      {
        "source": "**/*.@(js|css|jpg|jpeg|gif|png|ico|ttf|woff2|woff|eot|svg)",
        "headers": [
          {
            "key": "Cache-Control",
            "value": "max-age=300"
          }
        ]
      },
      {
        "source": "service-worker.js",
        "headers": [
          {
            "key": "Cache-Control",
            "value": "max-age=0"
          }
        ]
      }
    ]
  }
}
